[
  {
    "haiku": "The web site you seek\n\nLies beyond our perception\n\nBut others await."
  },
  {
    "haiku": "Sites you are seeking\n\nFrom your path they are fleeing\n\nTheir winter has come."
  },
  {
    "haiku": "A truth found, be told\n\nYou are far from the fold, Go\n\nCome back yet again."
  },
  {
    "haiku": "Wind catches lily\nScatt'ring petals to the wind:\nYour site is not found."
  },
  {
    "haiku": "These three are certain:\nDeath, taxes, and site not found.\nYou, victim of one."
  },
  {
    "haiku": "Ephemeral site.\nI am the Blue Screen of Death.\nNo one hears your screams."
  },
  {
    "haiku": "Aborted effort:\n\nThe site, passed this veil of tears.\n\nYou ask way too much."
  },
  {
    "haiku": "Mourning and sorrow\n\n404 not with us now\n\nLost to paradise."
  },
  {
    "haiku": "Not a pretty sight\n\nWhen the web dies screaming loud\n\nThe site is not found."
  },
  {
    "haiku": "Site slips through fingers\n\nPulse pounding hard and frantic\n\nVanishing like mist."
  },
  {
    "haiku": "The dream is shattered\n\nThe web site cannot be found\n\nInside the spring rain."
  },
  {
    "haiku": "Bartender yells loud\n\nYour site cannot be found, boy\n\nBuy another drink."
  },
  {
    "haiku": "Chrome megaphone barks\n\nIt's not possible to talk\n\nNot yet anyway."
  },
  {
    "haiku": "Emptiness of soul\n\nForever aching blackness:\n\n\"Blah.com not found.\""
  },
  {
    "haiku": "Click exciting link\n\nGossamer threads hold you back\n\n404 not found."
  },
  {
    "haiku": "With searching comes loss\n\nAnd the presence of absence:\n\nThe site is not found."
  },
  {
    "haiku": "You step in the stream,\n\nBut the water has moved on\n\nThe site is not here."
  },
  {
    "haiku": "Rather than a beep\n\nOr a rude error message,\n\nThese words: 'Site not found.'"
  },
  {
    "haiku": "Something you entered\n\nTranscended parameters.\n\nThe site is unknown."
  },
  {
    "haiku": "Stay the patient course\n\nOf little worth is your ire\n\nThe server is down"
  },
  {
    "haiku": "There is a chasm\n\nOf carbon and silicon\n\nThe server can't bridge."
  },
  {
    "haiku": "Chaos reigns within.\n\nReflect, repent, and retry.\n\nServer shall return."
  },
  {
    "haiku": "Won't you please observe\n\nA brief moment of silence\n\nFor the dead server?"
  },
  {
    "haiku": "First snow, then silence.\n\nThis expensive server dies\n\nSo beautifully."
  },
  {
    "haiku": "Seeing my great fault\n\nThrough darkening dead servers\n\nI begin again."
  },
  {
    "haiku": "Visit the home page\n\nIt can't be done easily\n\nWhen the site is down."
  },
  {
    "haiku": "Cables have been cut\n\nSouthwest of Northeast somewhere\n\nWe are not amused."
  },
  {
    "haiku": "Site is silent, yes\n\nNo voices can be heard now\n\nThe cows roll their eyes."
  },
  {
    "haiku": "Silicon shudders\n\nThe site is down for the count\n\nOne big knockout punch."
  },
  {
    "haiku": "Yesterday it worked\n\nToday it is not working\n\nThe web is like that."
  },
  {
    "haiku": "The ten thousand things\n\nHow long do any persist?\n\nThe file, not there."
  },
  {
    "haiku": "A file that big?\n\nIt might be very useful\n\nBut now it is gone."
  },
  {
    "haiku": "To have no errors\n\nWould be life without meaning\n\nNo struggle, no joy"
  },
  {
    "haiku": "Errors have occurred.\n\nWe won't tell you where or why.\n\nLazy programmers."
  },
  {
    "haiku": "The code was willing\n\nIt considered your request,\n\nBut the chips were weak."
  },
  {
    "haiku": "Error reduces\n\nYour expensive computer\n\nTo a simple stone."
  },
  {
    "haiku": "Server's poor response\n\nNot quick enough for browser.\n\nTimed out, plum blossom."
  },
  {
    "haiku": "Login incorrect.\n\nOnly perfect spellers may\n\nEnter this system."
  }
]
