<?xml version='1.0' encoding='utf-8'?>
<svg xmlns="http://www.w3.org/2000/svg" xmlns:xlink="http://www.w3.org/1999/xlink" id="chart-81b7558e-8919-42f2-bd5f-4f57a03d5e73" class="pygal-chart" viewBox="0 0 800 600"><!--Generated with pygal 3.0.0 (lxml) ©Kozea 2012-2016 on 2022-03-08--><!--http://pygal.org--><!--http://github.com/Kozea/pygal--><defs><style type="text/css">#chart-81b7558e-8919-42f2-bd5f-4f57a03d5e73{-webkit-user-select:none;-webkit-font-smoothing:antialiased;font-family:Hack}#chart-81b7558e-8919-42f2-bd5f-4f57a03d5e73 .title{font-family:Hack;font-size:25px}#chart-81b7558e-8919-42f2-bd5f-4f57a03d5e73 .legends .legend text{font-family:Hack;font-size:25px}#chart-81b7558e-8919-42f2-bd5f-4f57a03d5e73 .axis text{font-family:Hack;font-size:10px}#chart-81b7558e-8919-42f2-bd5f-4f57a03d5e73 .axis text.major{font-family:Hack;font-size:10px}#chart-81b7558e-8919-42f2-bd5f-4f57a03d5e73 .text-overlay text.value{font-family:Hack;font-size:16px}#chart-81b7558e-8919-42f2-bd5f-4f57a03d5e73 .text-overlay text.label{font-family:Hack;font-size:10px}#chart-81b7558e-8919-42f2-bd5f-4f57a03d5e73 .tooltip{font-family:Hack;font-size:14px}#chart-81b7558e-8919-42f2-bd5f-4f57a03d5e73 text.no_data{font-family:Hack;font-size:64px}
#chart-81b7558e-8919-42f2-bd5f-4f57a03d5e73{background-color:white}#chart-81b7558e-8919-42f2-bd5f-4f57a03d5e73 path,#chart-81b7558e-8919-42f2-bd5f-4f57a03d5e73 line,#chart-81b7558e-8919-42f2-bd5f-4f57a03d5e73 rect,#chart-81b7558e-8919-42f2-bd5f-4f57a03d5e73 circle{-webkit-transition:150ms;-moz-transition:150ms;transition:150ms}#chart-81b7558e-8919-42f2-bd5f-4f57a03d5e73 .graph &gt; .background{fill:white}#chart-81b7558e-8919-42f2-bd5f-4f57a03d5e73 .plot &gt; .background{fill:transparent}#chart-81b7558e-8919-42f2-bd5f-4f57a03d5e73 .graph{fill:rgba(0,0,0,.87)}#chart-81b7558e-8919-42f2-bd5f-4f57a03d5e73 text.no_data{fill:rgba(0,0,0,1)}#chart-81b7558e-8919-42f2-bd5f-4f57a03d5e73 .title{fill:rgba(0,0,0,1)}#chart-81b7558e-8919-42f2-bd5f-4f57a03d5e73 .legends .legend text{fill:rgba(0,0,0,.87)}#chart-81b7558e-8919-42f2-bd5f-4f57a03d5e73 .legends .legend:hover text{fill:rgba(0,0,0,1)}#chart-81b7558e-8919-42f2-bd5f-4f57a03d5e73 .axis .line{stroke:rgba(0,0,0,1)}#chart-81b7558e-8919-42f2-bd5f-4f57a03d5e73 .axis .guide.line{stroke:rgba(0,0,0,.54)}#chart-81b7558e-8919-42f2-bd5f-4f57a03d5e73 .axis .major.line{stroke:rgba(0,0,0,.87)}#chart-81b7558e-8919-42f2-bd5f-4f57a03d5e73 .axis text.major{fill:rgba(0,0,0,1)}#chart-81b7558e-8919-42f2-bd5f-4f57a03d5e73 .axis.y .guides:hover .guide.line,#chart-81b7558e-8919-42f2-bd5f-4f57a03d5e73 .line-graph .axis.x .guides:hover .guide.line,#chart-81b7558e-8919-42f2-bd5f-4f57a03d5e73 .stackedline-graph .axis.x .guides:hover .guide.line,#chart-81b7558e-8919-42f2-bd5f-4f57a03d5e73 .xy-graph .axis.x .guides:hover .guide.line{stroke:rgba(0,0,0,1)}#chart-81b7558e-8919-42f2-bd5f-4f57a03d5e73 .axis .guides:hover text{fill:rgba(0,0,0,1)}#chart-81b7558e-8919-42f2-bd5f-4f57a03d5e73 .reactive{fill-opacity:.7;stroke-opacity:.8;stroke-width:1}#chart-81b7558e-8919-42f2-bd5f-4f57a03d5e73 .ci{stroke:rgba(0,0,0,.87)}#chart-81b7558e-8919-42f2-bd5f-4f57a03d5e73 .reactive.active,#chart-81b7558e-8919-42f2-bd5f-4f57a03d5e73 .active .reactive{fill-opacity:.8;stroke-opacity:.9;stroke-width:4}#chart-81b7558e-8919-42f2-bd5f-4f57a03d5e73 .ci .reactive.active{stroke-width:1.5}#chart-81b7558e-8919-42f2-bd5f-4f57a03d5e73 .series text{fill:rgba(0,0,0,1)}#chart-81b7558e-8919-42f2-bd5f-4f57a03d5e73 .tooltip rect{fill:transparent;stroke:rgba(0,0,0,1);-webkit-transition:opacity 150ms;-moz-transition:opacity 150ms;transition:opacity 150ms}#chart-81b7558e-8919-42f2-bd5f-4f57a03d5e73 .tooltip .label{fill:rgba(0,0,0,.87)}#chart-81b7558e-8919-42f2-bd5f-4f57a03d5e73 .tooltip .label{fill:rgba(0,0,0,.87)}#chart-81b7558e-8919-42f2-bd5f-4f57a03d5e73 .tooltip .legend{font-size:.8em;fill:rgba(0,0,0,.54)}#chart-81b7558e-8919-42f2-bd5f-4f57a03d5e73 .tooltip .x_label{font-size:.6em;fill:rgba(0,0,0,1)}#chart-81b7558e-8919-42f2-bd5f-4f57a03d5e73 .tooltip .xlink{font-size:.5em;text-decoration:underline}#chart-81b7558e-8919-42f2-bd5f-4f57a03d5e73 .tooltip .value{font-size:1.5em}#chart-81b7558e-8919-42f2-bd5f-4f57a03d5e73 .bound{font-size:.5em}#chart-81b7558e-8919-42f2-bd5f-4f57a03d5e73 .max-value{font-size:.75em;fill:rgba(0,0,0,.54)}#chart-81b7558e-8919-42f2-bd5f-4f57a03d5e73 .map-element{fill:transparent;stroke:rgba(0,0,0,.54) !important}#chart-81b7558e-8919-42f2-bd5f-4f57a03d5e73 .map-element .reactive{fill-opacity:inherit;stroke-opacity:inherit}#chart-81b7558e-8919-42f2-bd5f-4f57a03d5e73 .color-0,#chart-81b7558e-8919-42f2-bd5f-4f57a03d5e73 .color-0 a:visited{stroke:#F44336;fill:#F44336}#chart-81b7558e-8919-42f2-bd5f-4f57a03d5e73 .color-1,#chart-81b7558e-8919-42f2-bd5f-4f57a03d5e73 .color-1 a:visited{stroke:#3F51B5;fill:#3F51B5}#chart-81b7558e-8919-42f2-bd5f-4f57a03d5e73 .color-2,#chart-81b7558e-8919-42f2-bd5f-4f57a03d5e73 .color-2 a:visited{stroke:#009688;fill:#009688}#chart-81b7558e-8919-42f2-bd5f-4f57a03d5e73 .text-overlay .color-0 text{fill:black}#chart-81b7558e-8919-42f2-bd5f-4f57a03d5e73 .text-overlay .color-1 text{fill:black}#chart-81b7558e-8919-42f2-bd5f-4f57a03d5e73 .text-overlay .color-2 text{fill:black}
#chart-81b7558e-8919-42f2-bd5f-4f57a03d5e73 text.no_data{text-anchor:middle}#chart-81b7558e-8919-42f2-bd5f-4f57a03d5e73 .guide.line{fill:none}#chart-81b7558e-8919-42f2-bd5f-4f57a03d5e73 .centered{text-anchor:middle}#chart-81b7558e-8919-42f2-bd5f-4f57a03d5e73 .title{text-anchor:middle}#chart-81b7558e-8919-42f2-bd5f-4f57a03d5e73 .legends .legend text{fill-opacity:1}#chart-81b7558e-8919-42f2-bd5f-4f57a03d5e73 .axis.x text{text-anchor:middle}#chart-81b7558e-8919-42f2-bd5f-4f57a03d5e73 .axis.x:not(.web) text[transform]{text-anchor:start}#chart-81b7558e-8919-42f2-bd5f-4f57a03d5e73 .axis.x:not(.web) text[transform].backwards{text-anchor:end}#chart-81b7558e-8919-42f2-bd5f-4f57a03d5e73 .axis.y text{text-anchor:end}#chart-81b7558e-8919-42f2-bd5f-4f57a03d5e73 .axis.y text[transform].backwards{text-anchor:start}#chart-81b7558e-8919-42f2-bd5f-4f57a03d5e73 .axis.y2 text{text-anchor:start}#chart-81b7558e-8919-42f2-bd5f-4f57a03d5e73 .axis.y2 text[transform].backwards{text-anchor:end}#chart-81b7558e-8919-42f2-bd5f-4f57a03d5e73 .axis .guide.line{stroke-dasharray:4,4;stroke:black}#chart-81b7558e-8919-42f2-bd5f-4f57a03d5e73 .axis .major.guide.line{stroke-dasharray:6,6;stroke:black}#chart-81b7558e-8919-42f2-bd5f-4f57a03d5e73 .horizontal .axis.y .guide.line,#chart-81b7558e-8919-42f2-bd5f-4f57a03d5e73 .horizontal .axis.y2 .guide.line,#chart-81b7558e-8919-42f2-bd5f-4f57a03d5e73 .vertical .axis.x .guide.line{opacity:0}#chart-81b7558e-8919-42f2-bd5f-4f57a03d5e73 .horizontal .axis.always_show .guide.line,#chart-81b7558e-8919-42f2-bd5f-4f57a03d5e73 .vertical .axis.always_show .guide.line{opacity:1 !important}#chart-81b7558e-8919-42f2-bd5f-4f57a03d5e73 .axis.y .guides:hover .guide.line,#chart-81b7558e-8919-42f2-bd5f-4f57a03d5e73 .axis.y2 .guides:hover .guide.line,#chart-81b7558e-8919-42f2-bd5f-4f57a03d5e73 .axis.x .guides:hover .guide.line{opacity:1}#chart-81b7558e-8919-42f2-bd5f-4f57a03d5e73 .axis .guides:hover text{opacity:1}#chart-81b7558e-8919-42f2-bd5f-4f57a03d5e73 .nofill{fill:none}#chart-81b7558e-8919-42f2-bd5f-4f57a03d5e73 .subtle-fill{fill-opacity:.2}#chart-81b7558e-8919-42f2-bd5f-4f57a03d5e73 .dot{stroke-width:1px;fill-opacity:1;stroke-opacity:1}#chart-81b7558e-8919-42f2-bd5f-4f57a03d5e73 .dot.active{stroke-width:5px}#chart-81b7558e-8919-42f2-bd5f-4f57a03d5e73 .dot.negative{fill:transparent}#chart-81b7558e-8919-42f2-bd5f-4f57a03d5e73 text,#chart-81b7558e-8919-42f2-bd5f-4f57a03d5e73 tspan{stroke:none !important}#chart-81b7558e-8919-42f2-bd5f-4f57a03d5e73 .series text.active{opacity:1}#chart-81b7558e-8919-42f2-bd5f-4f57a03d5e73 .tooltip rect{fill-opacity:.95;stroke-width:.5}#chart-81b7558e-8919-42f2-bd5f-4f57a03d5e73 .tooltip text{fill-opacity:1}#chart-81b7558e-8919-42f2-bd5f-4f57a03d5e73 .showable{visibility:hidden}#chart-81b7558e-8919-42f2-bd5f-4f57a03d5e73 .showable.shown{visibility:visible}#chart-81b7558e-8919-42f2-bd5f-4f57a03d5e73 .gauge-background{fill:rgba(229,229,229,1);stroke:none}#chart-81b7558e-8919-42f2-bd5f-4f57a03d5e73 .bg-lines{stroke:white;stroke-width:2px}</style><script type="text/javascript">window.pygal = window.pygal || {};window.pygal.config = window.pygal.config || {};window.pygal.config['81b7558e-8919-42f2-bd5f-4f57a03d5e73'] = {"allow_interruptions": false, "box_mode": "extremes", "classes": ["pygal-chart"], "css": ["file://style.css", "file://graph.css"], "defs": [], "disable_xml_declaration": false, "dots_size": 2.5, "dynamic_print_values": false, "explicit_size": false, "fill": false, "force_uri_protocol": "https", "formatter": null, "half_pie": false, "height": 600, "include_x_axis": false, "inner_radius": 0, "interpolate": null, "interpolation_parameters": {}, "interpolation_precision": 250, "inverse_y_axis": false, "js": ["//kozea.github.io/pygal.js/2.0.x/pygal-tooltips.min.js"], "legend_at_bottom": false, "legend_at_bottom_columns": null, "legend_box_size": 12, "logarithmic": false, "margin": 20, "margin_bottom": null, "margin_left": null, "margin_right": null, "margin_top": null, "max_scale": 16, "min_scale": 4, "missing_value_fill_truncation": "x", "no_data_text": "No data", "no_prefix": false, "order_min": null, "pretty_print": false, "print_labels": false, "print_values": false, "print_values_position": "center", "print_zeroes": true, "range": null, "rounded_bars": null, "secondary_range": null, "show_dots": true, "show_legend": true, "show_minor_x_labels": true, "show_minor_y_labels": true, "show_only_major_dots": false, "show_x_guides": false, "show_x_labels": true, "show_y_guides": true, "show_y_labels": false, "spacing": 10, "stack_from_top": false, "strict": false, "stroke": true, "stroke_style": null, "style": {"background": "white", "ci_colors": [], "colors": ["#F44336", "#3F51B5", "#009688", "#FFC107", "#FF5722", "#9C27B0", "#03A9F4", "#8BC34A", "#FF9800", "#E91E63", "#2196F3", "#4CAF50", "#FFEB3B", "#673AB7", "#00BCD4", "#CDDC39", "#9E9E9E", "#607D8B"], "dot_opacity": "1", "font_family": "Hack", "foreground": "rgba(0, 0, 0, .87)", "foreground_strong": "rgba(0, 0, 0, 1)", "foreground_subtle": "rgba(0, 0, 0, .54)", "guide_stroke_color": "black", "guide_stroke_dasharray": "4,4", "label_font_family": "Hack", "label_font_size": 10, "legend_font_family": "Hack", "legend_font_size": 25, "major_guide_stroke_color": "black", "major_guide_stroke_dasharray": "6,6", "major_label_font_family": "Hack", "major_label_font_size": 10, "no_data_font_family": "Hack", "no_data_font_size": 64, "opacity": ".7", "opacity_hover": ".8", "plot_background": "transparent", "stroke_opacity": ".8", "stroke_opacity_hover": ".9", "stroke_width": "1", "stroke_width_hover": "4", "title_font_family": "Hack", "title_font_size": 25, "tooltip_font_family": "Hack", "tooltip_font_size": 14, "transition": "150ms", "value_background": "rgba(229, 229, 229, 1)", "value_colors": [], "value_font_family": "Hack", "value_font_size": 16, "value_label_font_family": "Hack", "value_label_font_size": 10}, "title": "Linux Distribution Sentiment\n(in %)", "tooltip_border_radius": 0, "tooltip_fancy_mode": true, "truncate_label": null, "truncate_legend": null, "width": 800, "x_label_rotation": 0, "x_labels": ["Ubuntu", "Arch", "Mint", "Kali", "Debian", "Manjaro"], "x_labels_major": null, "x_labels_major_count": null, "x_labels_major_every": null, "x_title": null, "xrange": null, "y_label_rotation": 0, "y_labels": null, "y_labels_major": null, "y_labels_major_count": null, "y_labels_major_every": null, "y_title": null, "zero": 0, "legends": ["Negative", "Neutral", "Positive"]}</script><script type="text/javascript" xlink:href="https://kozea.github.io/pygal.js/2.0.x/pygal-tooltips.min.js"/></defs><title>Linux Distribution Sentiment
(in %)</title><g class="graph stackedbar-graph vertical"><rect x="0" y="0" width="800" height="600" class="background"/><g transform="translate(162, 90)" class="plot"><rect x="0" y="0" width="618.0" height="470" class="background"/><g class="axis x"><path d="M0.000000 0.000000 v470.000000" class="line"/><g class="guides"><path d="M61.403846 0.000000 v470.000000" class="guide line"/><text x="61.40384615384615" y="485.0" class="">Ubuntu</text></g><g class="guides"><path d="M160.442308 0.000000 v470.000000" class="guide line"/><text x="160.4423076923077" y="485.0" class="">Arch</text></g><g class="guides"><path d="M259.480769 0.000000 v470.000000" class="guide line"/><text x="259.4807692307692" y="485.0" class="">Mint</text></g><g class="guides"><path d="M358.519231 0.000000 v470.000000" class="guide line"/><text x="358.5192307692308" y="485.0" class="">Kali</text></g><g class="guides"><path d="M457.557692 0.000000 v470.000000" class="guide line"/><text x="457.5576923076923" y="485.0" class="">Debian</text></g><g class="guides"><path d="M556.596154 0.000000 v470.000000" class="guide line"/><text x="556.5961538461538" y="485.0" class="">Manjaro</text></g></g><g class="series serie-0 color-0"><g class="bars"><g class="bar"><rect x="17.826923076923077" y="379.61538461538464" rx="0" ry="0" width="87.15384615384616" height="81.34615384615381" class="rect reactive tooltip-trigger"/><desc class="value">18</desc><desc class="x centered">61.40384615384616</desc><desc class="y centered">420.28846153846155</desc><desc class="x_label">Ubuntu</desc></g><g class="bar"><rect x="116.8653846153846" y="420.28846153846155" rx="0" ry="0" width="87.15384615384616" height="40.673076923076906" class="rect reactive tooltip-trigger"/><desc class="value">9</desc><desc class="x centered">160.44230769230768</desc><desc class="y centered">440.625</desc><desc class="x_label">Arch</desc></g><g class="bar"><rect x="215.90384615384616" y="415.7692307692308" rx="0" ry="0" width="87.15384615384616" height="45.19230769230768" class="rect reactive tooltip-trigger"/><desc class="value">10</desc><desc class="x centered">259.4807692307692</desc><desc class="y centered">438.36538461538464</desc><desc class="x_label">Mint</desc></g><g class="bar"><rect x="314.9423076923077" y="433.84615384615387" rx="0" ry="0" width="87.15384615384616" height="27.115384615384585" class="rect reactive tooltip-trigger"/><desc class="value">6</desc><desc class="x centered">358.5192307692308</desc><desc class="y centered">447.4038461538462</desc><desc class="x_label">Kali</desc></g><g class="bar"><rect x="413.9807692307692" y="393.1730769230769" rx="0" ry="0" width="87.15384615384616" height="67.78846153846155" class="rect reactive tooltip-trigger"/><desc class="value">15</desc><desc class="x centered">457.5576923076923</desc><desc class="y centered">427.0673076923077</desc><desc class="x_label">Debian</desc></g><g class="bar"><rect x="513.0192307692308" y="397.6923076923077" rx="0" ry="0" width="87.15384615384616" height="63.269230769230774" class="rect reactive tooltip-trigger"/><desc class="value">14</desc><desc class="x centered">556.5961538461539</desc><desc class="y centered">429.3269230769231</desc><desc class="x_label">Manjaro</desc></g></g></g><g class="series serie-1 color-1"><g class="bars"><g class="bar"><rect x="17.826923076923077" y="76.8269230769231" rx="0" ry="0" width="87.15384615384616" height="302.78846153846155" class="rect reactive tooltip-trigger"/><desc class="value">67</desc><desc class="x centered">61.40384615384616</desc><desc class="y centered">228.22115384615387</desc><desc class="x_label">Ubuntu</desc></g><g class="bar"><rect x="116.8653846153846" y="81.34615384615387" rx="0" ry="0" width="87.15384615384616" height="338.9423076923077" class="rect reactive tooltip-trigger"/><desc class="value">75</desc><desc class="x centered">160.44230769230768</desc><desc class="y centered">250.8173076923077</desc><desc class="x_label">Arch</desc></g><g class="bar"><rect x="215.90384615384616" y="81.34615384615387" rx="0" ry="0" width="87.15384615384616" height="334.4230769230769" class="rect reactive tooltip-trigger"/><desc class="value">74</desc><desc class="x centered">259.4807692307692</desc><desc class="y centered">248.55769230769232</desc><desc class="x_label">Mint</desc></g><g class="bar"><rect x="314.9423076923077" y="103.94230769230768" rx="0" ry="0" width="87.15384615384616" height="329.9038461538462" class="rect reactive tooltip-trigger"/><desc class="value">73</desc><desc class="x centered">358.5192307692308</desc><desc class="y centered">268.8942307692308</desc><desc class="x_label">Kali</desc></g><g class="bar"><rect x="413.9807692307692" y="90.38461538461536" rx="0" ry="0" width="87.15384615384616" height="302.78846153846155" class="rect reactive tooltip-trigger"/><desc class="value">67</desc><desc class="x centered">457.5576923076923</desc><desc class="y centered">241.77884615384613</desc><desc class="x_label">Debian</desc></g><g class="bar"><rect x="513.0192307692308" y="99.4230769230769" rx="0" ry="0" width="87.15384615384616" height="298.2692307692308" class="rect reactive tooltip-trigger"/><desc class="value">66</desc><desc class="x centered">556.5961538461539</desc><desc class="y centered">248.5576923076923</desc><desc class="x_label">Manjaro</desc></g></g></g><g class="series serie-2 color-2"><g class="bars"><g class="bar"><rect x="17.826923076923077" y="9.038461538461547" rx="0" ry="0" width="87.15384615384616" height="67.78846153846155" class="rect reactive tooltip-trigger"/><desc class="value">15</desc><desc class="x centered">61.40384615384616</desc><desc class="y centered">42.93269230769232</desc><desc class="x_label">Ubuntu</desc></g><g class="bar"><rect x="116.8653846153846" y="9.038461538461547" rx="0" ry="0" width="87.15384615384616" height="72.30769230769232" class="rect reactive tooltip-trigger"/><desc class="value">16</desc><desc class="x centered">160.44230769230768</desc><desc class="y centered">45.19230769230771</desc><desc class="x_label">Arch</desc></g><g class="bar"><rect x="215.90384615384616" y="9.038461538461547" rx="0" ry="0" width="87.15384615384616" height="72.30769230769232" class="rect reactive tooltip-trigger"/><desc class="value">16</desc><desc class="x centered">259.4807692307692</desc><desc class="y centered">45.19230769230771</desc><desc class="x_label">Mint</desc></g><g class="bar"><rect x="314.9423076923077" y="9.038461538461547" rx="0" ry="0" width="87.15384615384616" height="94.90384615384613" class="rect reactive tooltip-trigger"/><desc class="value">21</desc><desc class="x centered">358.5192307692308</desc><desc class="y centered">56.49038461538461</desc><desc class="x_label">Kali</desc></g><g class="bar"><rect x="413.9807692307692" y="9.038461538461547" rx="0" ry="0" width="87.15384615384616" height="81.34615384615381" class="rect reactive tooltip-trigger"/><desc class="value">18</desc><desc class="x centered">457.5576923076923</desc><desc class="y centered">49.71153846153845</desc><desc class="x_label">Debian</desc></g><g class="bar"><rect x="513.0192307692308" y="9.038461538461547" rx="0" ry="0" width="87.15384615384616" height="90.38461538461536" class="rect reactive tooltip-trigger"/><desc class="value">20</desc><desc class="x centered">556.5961538461539</desc><desc class="y centered">54.230769230769226</desc><desc class="x_label">Manjaro</desc></g></g></g></g><g class="titles"><text x="400.0" y="35" class="title plot_title">Linux Distribution Sentiment</text><text x="400.0" y="70" class="title plot_title">(in %)</text></g><g transform="translate(162, 90)" class="plot overlay"><g class="series serie-0 color-0"/><g class="series serie-1 color-1"/><g class="series serie-2 color-2"/></g><g transform="translate(162, 90)" class="plot text-overlay"><g class="series serie-0 color-0"/><g class="series serie-1 color-1"/><g class="series serie-2 color-2"/></g><g transform="translate(162, 90)" class="plot tooltip-overlay"><g transform="translate(0 0)" style="opacity: 0" class="tooltip"><rect rx="0" ry="0" width="0" height="0" class="tooltip-box"/><g class="text"/></g></g><g transform="translate(10, 100)" class="legends"><g id="activate-serie-0" class="legend reactive activate-serie"><rect x="0.0" y="6.5" width="12" height="12" class="color-0 reactive"/><text x="17.0" y="20.0">Negative</text></g><g id="activate-serie-1" class="legend reactive activate-serie"><rect x="0.0" y="44.0" width="12" height="12" class="color-1 reactive"/><text x="17.0" y="57.5">Neutral</text></g><g id="activate-serie-2" class="legend reactive activate-serie"><rect x="0.0" y="81.5" width="12" height="12" class="color-2 reactive"/><text x="17.0" y="95.0">Positive</text></g></g><g transform="translate(790, 100)" class="legends"/></g></svg>